Tidy Survey Analysis in R using the srvyr Package
…
---
## `survey_count` Example

- Cross-tab of population in each age group and gender

```r
anes_des %>%
  survey_count(AgeGroup, Gender, name="n")
```

```
## # A tibble: 25 x 4
##    AgeGroup Gender         n     n_se
##    <fct>    <fct>      <dbl>    <dbl>
##  1 18-29    Male   23706666. 1771369.
##  2 18-29    Female 20972922. 1373206.
##  3 18-29    Other    295319.  150903.
##  4 30-39    Male   17039603. 1129924.
##  5 30-39    Female 19385497. 1249208.
##  6 30-39    Other     48425.   34492.
##  7 30-39    NA       259882.  148534.
##  8 40-49    Male   15369292. 1204485.
##  9 40-49    Female 18047731. 1205972.
## 10 40-49    Other     25736.   25736.
## # ... with 15 more rows
```
…
